[gd_scene format=1]

[node name="Tronics" type="Control"]

anchor/right = 1
anchor/bottom = 1
focus/ignore_mouse = false
focus/stop_mouse = true
size_flags/horizontal = 2
size_flags/vertical = 2
margin/left = 0.0
margin/top = 0.0
margin/right = 0.0
margin/bottom = 0.0

[node name="Label" type="Label" parent="."]

focus/ignore_mouse = true
focus/stop_mouse = true
size_flags/horizontal = 2
size_flags/vertical = 0
margin/left = 45.0
margin/top = 56.0
margin/right = 128.0
margin/bottom = 70.0
text = "YAY TRONICS"
percent_visible = 1.0
lines_skipped = 0
max_lines_visible = -1


