<?xml version="1.0" encoding="utf-8"?>
<COLLADA xmlns="http://www.collada.org/2005/11/COLLADASchema" version="1.4.1">
<asset>
	<contributor>
		<author> Anonymous </author>
		<authoring_tool> Collada Exporter for Blender 2.6+, by Juan Linietsky (juan@codenix.com) </authoring_tool>
	</contributor>
	<created>2016-08-02T16:55:43Z     </created>
	<modified>2016-08-02T16:55:43Z</modified>
	<unit meter="1.0" name="meter"/>
	<up_axis>Z_UP</up_axis>
</asset>
<library_images>
</library_images>
<library_effects>
	<effect id="id-fx-2" name="Material-fx">
		<profile_COMMON>
			<technique sid="common">
				<blinn>
					<emission>
						<color>  0.0 0.0 0.0 1.0  </color>
					</emission>
					<ambient>
						<color>  0.0 0.0 0.0 1.0  </color>
					</ambient>
					<diffuse>
						<color>  0.640000066757203 0.02783212107169808 0.030885747535314367 1.0 </color>
					</diffuse>
					<specular>
						<color>  0.0 0.0 0.0 1.0 </color>
					</specular>
					<shininess>
						<float>50</float>
					</shininess>
					<reflective>
						<color>  1.0 1.0 1.0 1.0 </color>
					</reflective>
					<index_of_refraction>
						<float>4.0</float>
					</index_of_refraction>
				</blinn>
				<extra>
					<technique profile="FCOLLADA">
					</technique>
					<technique profile="GOOGLEEARTH">
						<double_sided>0</double_sided>
					</technique>
				</extra>
			</technique>
		</profile_COMMON>
	</effect>
	<effect id="id-fx-4" name="Material.001-fx">
		<profile_COMMON>
			<technique sid="common">
				<blinn>
					<emission>
						<color>  0.0 0.0 0.0 1.0  </color>
					</emission>
					<ambient>
						<color>  0.0 0.0 0.0 1.0  </color>
					</ambient>
					<diffuse>
						<color>  0.03362180044683516 0.03362180044683516 0.03362180044683516 1.0 </color>
					</diffuse>
					<specular>
						<color>  0.0 0.0 0.0 1.0 </color>
					</specular>
					<shininess>
						<float>50</float>
					</shininess>
					<reflective>
						<color>  1.0 1.0 1.0 1.0 </color>
					</reflective>
					<index_of_refraction>
						<float>4.0</float>
					</index_of_refraction>
				</blinn>
				<extra>
					<technique profile="FCOLLADA">
					</technique>
					<technique profile="GOOGLEEARTH">
						<double_sided>0</double_sided>
					</technique>
				</extra>
			</technique>
		</profile_COMMON>
	</effect>
</library_effects>
<library_materials>
	<material id="id-material-3" name="Material">
		<instance_effect url="#id-fx-2"/>
	</material>
	<material id="id-material-5" name="Material.001">
		<instance_effect url="#id-fx-4"/>
	</material>
</library_materials>
<library_geometries>
	<geometry id="id-mesh-6" name="Cube.002">
		<mesh>
			<source id="id-mesh-6-positions">
				<float_array id="id-mesh-6-positions-array" count="144"> -0.19255518913269043 -0.19255518913269043 0.21967588365077972 -0.19255518913269043 0.19255518913269043 0.21967588365077972 -0.19255518913269043 0.19255518913269043 0.10603892803192139 -0.19255518913269043 -0.19255518913269043 0.10603892803192139 -0.19255518913269043 0.19255518913269043 0.21967588365077972 0.19255518913269043 0.19255518913269043 0.21967588365077972 0.19255518913269043 0.19255518913269043 0.10603892803192139 -0.19255518913269043 0.19255518913269043 0.10603892803192139 0.19255518913269043 0.19255518913269043 0.21967588365077972 0.19255518913269043 -0.19255518913269043 0.21967588365077972 0.19255518913269043 -0.19255518913269043 0.10603892803192139 0.19255518913269043 0.19255518913269043 0.10603892803192139 0.19255518913269043 -0.19255518913269043 0.21967588365077972 -0.19255518913269043 -0.19255518913269043 0.21967588365077972 -0.19255518913269043 -0.19255518913269043 0.10603892803192139 0.19255518913269043 -0.19255518913269043 0.10603892803192139 -0.19255518913269043 -0.19255518913269043 0.10603892803192139 -0.19255518913269043 0.19255518913269043 0.10603892803192139 0.19255518913269043 0.19255518913269043 0.10603892803192139 0.19255518913269043 -0.19255518913269043 0.10603892803192139 0.19255518913269043 -0.19255518913269043 0.21967588365077972 0.19255518913269043 0.19255518913269043 0.21967588365077972 -0.19255518913269043 0.19255518913269043 0.21967588365077972 -0.19255518913269043 -0.19255518913269043 0.21967588365077972 -0.25 -0.25 0.12522099912166595 -0.25 0.25 0.12522099912166595 -0.25 0.25 0.00022101402282714844 -0.25 -0.25 0.00022101402282714844 -0.25 0.25 0.12522099912166595 0.25 0.25 0.12522099912166595 0.25 0.25 0.00022101402282714844 -0.25 0.25 0.00022101402282714844 0.25 0.25 0.12522099912166595 0.25 -0.25 0.12522099912166595 0.25 -0.25 0.00022101402282714844 0.25 0.25 0.00022101402282714844 0.25 -0.25 0.12522099912166595 -0.25 -0.25 0.12522099912166595 -0.25 -0.25 0.00022101402282714844 0.25 -0.25 0.00022101402282714844 -0.25 -0.25 0.0 -0.25 0.25 0.0 0.25 0.25 0.0 0.25 -0.25 0.0 0.25 -0.25 0.12522099912166595 0.25 0.25 0.12522099912166595 -0.25 0.25 0.12522099912166595 -0.25 -0.25 0.12522099912166595</float_array>
				<technique_common>
				<accessor source="#id-mesh-6-positions-array" count="48" stride="3">
					<param name="X" type="float"/>
					<param name="Y" type="float"/>
					<param name="Z" type="float"/>
				</accessor>
				</technique_common>
			</source>
			<source id="id-mesh-6-normals">
				<float_array id="id-mesh-6-normals-array" count="144"> -1.0 0.0 0.0 -1.0 0.0 0.0 -1.0 0.0 0.0 -1.0 0.0 0.0 0.0 1.0 0.0 0.0 1.0 0.0 0.0 1.0 0.0 0.0 1.0 0.0 1.0 0.0 0.0 1.0 0.0 0.0 1.0 0.0 0.0 1.0 0.0 0.0 0.0 -1.0 0.0 0.0 -1.0 0.0 0.0 -1.0 0.0 0.0 -1.0 0.0 0.0 0.0 -1.0 0.0 0.0 -1.0 0.0 0.0 -1.0 0.0 0.0 -1.0 0.0 0.0 1.0 0.0 0.0 1.0 0.0 0.0 1.0 0.0 0.0 1.0 -1.0 0.0 0.0 -1.0 0.0 0.0 -1.0 0.0 0.0 -1.0 0.0 0.0 0.0 1.0 0.0 0.0 1.0 0.0 0.0 1.0 0.0 0.0 1.0 0.0 1.0 0.0 0.0 1.0 0.0 0.0 1.0 0.0 0.0 1.0 0.0 0.0 0.0 -1.0 0.0 0.0 -1.0 0.0 0.0 -1.0 0.0 0.0 -1.0 0.0 0.0 0.0 -1.0 0.0 0.0 -1.0 0.0 0.0 -1.0 0.0 0.0 -1.0 0.0 0.0 1.0 0.0 0.0 1.0 0.0 0.0 1.0 0.0 0.0 1.0</float_array>
				<technique_common>
				<accessor source="#id-mesh-6-normals-array" count="48" stride="3">
					<param name="X" type="float"/>
					<param name="Y" type="float"/>
					<param name="Z" type="float"/>
				</accessor>
				</technique_common>
			</source>
			<source id="id-mesh-6-texcoord-0">
				<float_array id="id-mesh-6-texcoord-0-array" count="96"> 0.0 0.0 0.0 0.0 0.0 0.0 0.0 0.0 0.0 0.0 0.0 0.0 0.0 0.0 0.0 0.0 0.0 0.0 0.0 0.0 0.0 0.0 0.0 0.0 0.0 0.0 0.0 0.0 0.0 0.0 0.0 0.0 0.0 0.0 0.0 0.0 0.0 0.0 0.0 0.0 0.0 0.0 0.0 0.0 0.0 0.0 0.0 0.0 0.062499940395355225 0.0 0.0625 1.0 0.0 1.0 -5.960464477539063e-08 0.0 5.960464477539063e-08 0.9375 1.0 0.9375 1.0 1.0 5.960464477539063e-08 0.9999999403953552 0.9374998807907104 0.9999999403953552 0.9375 -8.940696716308594e-08 1.0 -8.940696716308594e-08 0.9999999403953552 0.9999999403953552 0.9999999403953552 0.06249991059303284 -5.960464477539063e-08 0.0625 -5.960464477539063e-08 5.960464477539063e-08 0.9999999403953552 -1.4901161193847656e-07 -5.960464477539063e-08 0.0 0.0 1.0 1.0 0.9999999403953552 0.9999999403953552 -8.940696716308594e-08 0.9999999403953552 -8.940696716308594e-08 1.0 0.9999999403953552 0.0 1.0 -5.960464477539063e-08 0.0</float_array>
				<technique_common>
				<accessor source="#id-mesh-6-texcoord-0-array" count="48" stride="2">
					<param name="S" type="float"/>
					<param name="T" type="float"/>
				</accessor>
				</technique_common>
			</source>
			<vertices id="id-mesh-6-vertices">
				<input semantic="POSITION" source="#id-mesh-6-positions"/>
			</vertices>
			<polygons count="6" material="id-trimat-7">
				<input semantic="VERTEX" source="#id-mesh-6-vertices" offset="0"/>
				<input semantic="NORMAL" source="#id-mesh-6-normals" offset="0"/>
				<input semantic="TEXCOORD" source="#id-mesh-6-texcoord-0" offset="0" set="0"/>
				<p> 0 1 2 3 </p>
				<p> 4 5 6 7 </p>
				<p> 8 9 10 11 </p>
				<p> 12 13 14 15 </p>
				<p> 16 17 18 19 </p>
				<p> 20 21 22 23 </p>
			</polygons>
			<polygons count="6" material="id-trimat-8">
				<input semantic="VERTEX" source="#id-mesh-6-vertices" offset="0"/>
				<input semantic="NORMAL" source="#id-mesh-6-normals" offset="0"/>
				<input semantic="TEXCOORD" source="#id-mesh-6-texcoord-0" offset="0" set="0"/>
				<p> 24 25 26 27 </p>
				<p> 28 29 30 31 </p>
				<p> 32 33 34 35 </p>
				<p> 36 37 38 39 </p>
				<p> 40 41 42 43 </p>
				<p> 44 45 46 47 </p>
			</polygons>
		</mesh>
	</geometry>
</library_geometries>
<library_controllers>
</library_controllers>
<library_cameras>
</library_cameras>
<library_lights>
</library_lights>
<library_visual_scenes>
	<visual_scene id="id-scene-1" name="scene">
		<node id="Tronic" name="Tronic" type="NODE">
			<matrix sid="transform"> 1.0 0.0 0.0 0.0 0.0 1.0 0.0 0.0 0.0 0.0 1.0 0.0 0.0 0.0 0.0 1.0  </matrix>
			<instance_geometry url="#id-mesh-6">
				<bind_material>
					<technique_common>
						<instance_material symbol="id-trimat-7" target="#id-material-3"/>
						<instance_material symbol="id-trimat-8" target="#id-material-5"/>
					</technique_common>
				</bind_material>
			</instance_geometry>
		</node>
	</visual_scene>
</library_visual_scenes>
<scene>
	<instance_visual_scene url="#id-scene-1" />
</scene>
</COLLADA>
